[
   "crash4|23/05/18|0-3-0-30\n",
   "crash1|24/05/18|0-3-8-21",
   "crash3|24/05/18|0-3-0-45\n",
   "crash2|24/05/18|0-6-34-51",
   "crash3|24/05/18|0-4-1-32",
   "crash4|25/05/18|0-4-39-14",
   "crash5|25/05/18|0-3-0-1",
   "crash6|25/05/18|0-3-0-1",
   "crash7|25/05/18|0-6-9-40",
   "crash1|25/05/18|0-9-38-4",
   "crash2|26/05/18|0-7-17-35",
   "crash3|26/05/18|0-3-0-4",
   "crash4|26/05/18|0-3-29-51",
   "crash5|26/05/18|0-4-44-57",
   "crash6|27/05/18|0-6-6-33",
   "crash7|27/05/18|0-3-21-52",
   "crash1|27/05/18|0-4-29-4",
   "crash2|27/05/18|0-4-52-30",
   "crash3|27/05/18|0-11-30-53",
   "crash4|28/05/18|0-3-11-35",
   "crash5|28/05/18|0-4-34-6",
   "crash6|28/05/18|0-11-35-41",
   "crash7|29/05/18|0-3-32-32",
   "crash1|29/05/18|0-6-34-41",
   "crash2|29/05/18|0-8-5-39",
   "crash3|29/05/18|0-11-34-31",
   "crash4|30/05/18|0-5-17-17",
   "crash5|30/05/18|0-6-57-6",
   "crash6|30/05/18|0-14-23-37",
   "crash7|31/05/18|0-3-13-53",
   "crash1|31/05/18|0-20-38-54",
   "crash2|01/06/18|0-3-0-2",
   "crash3|01/06/18|0-3-0-4",
   "crash4|01/06/18|0-3-0-2",
   "crash5|01/06/18|0-15-35-48",
   "crash6|02/06/18|0-6-12-53",
   "crash7|02/06/18|1-18-6-58",
   "crash1|04/06/18|0-3-2-42",
   "crash2|04/06/18|0-3-0-1",
   "crash3|04/06/18|0-4-1-58",
   "crash4|04/06/18|0-9-3-7",
   "crash5|05/06/18|0-10-1-26",
   "crash6|05/06/18|0-20-47-11",
   "crash7|06/06/18|0-8-16-11",
   "crash1|06/06/18|0-8-10-0",
   "crash2|07/06/18|0-3-0-4",
   "crash3|07/06/18|0-3-0-1",
   "crash4|07/06/18|0-7-52-51",
   "crash5|07/06/18|0-11-18-7",
   "crash6|08/06/18|1-16-57-25",
   "crash7|10/06/18|0-18-24-55",
   "crash1|10/06/18|0-5-12-8",
   "crash2|10/06/18|0-9-40-16",
   "crash3|11/06/18|0-3-12-5",
   "crash4|11/06/18|1-0-18-24",
   "crash5|12/06/18|0-3-31-23",
   "crash6|12/06/18|0-3-20-24",
   "crash7|12/06/18|0-13-24-6",
   "crash1|13/06/18|0-11-2-5",
   "crash2|13/06/18|0-9-37-42",
   "crash3|14/06/18|0-9-35-0",
   "crash4|14/06/18|0-4-46-17",
   "crash5|14/06/18|0-20-59-14",
   "crash6|15/06/18|0-23-40-59",
   "crash7|16/06/18|0-19-29-18",
   "crash1|17/06/18|0-17-59-43",
   "crash2|18/06/18|0-5-59-30",
   "crash3|18/06/18|0-3-28-40",
   "crash4|18/06/18|0-3-17-38",
   "crash5|18/06/18|0-7-9-1",
   "crash6|19/06/18|0-3-52-53",
   "crash7|19/06/18|0-3-39-38",
   "crash1|19/06/18|0-6-34-50",
   "crash2|19/06/18|0-15-37-24",
   "crash3|20/06/18|0-8-28-22",
   "crash4|20/06/18|0-3-16-50",
   "crash5|20/06/18|0-6-29-51",
   "crash6|21/06/18|0-5-5-29",
   "crash7|21/06/18|0-8-36-11",
   "crash1|21/06/18|0-22-47-1",
   "crash2|22/06/18|0-5-22-1",
   "crash3|22/06/18|0-13-11-57",
   "crash4|23/06/18|0-3-0-17",
   "crash5|23/06/18|0-3-0-13",
   "crash6|23/06/18|0-3-1-21",
   "crash7|23/06/18|0-3-2-51",
   "crash1|23/06/18|0-9-58-31",
   "crash2|24/06/18|0-3-0-4",
   "crash3|24/06/18|0-6-24-24",
   "crash4|24/06/18|0-3-3-54",
   "crash5|24/06/18|0-10-49-20",
   "crash6|25/06/18|0-3-19-31",
   "crash7|25/06/18|0-3-11-37",
   "crash1|25/06/18|0-3-0-3",
   "crash2|25/06/18|0-3-0-0",
   "crash3|25/06/18|0-3-0-3",
   "crash4|25/06/18|0-3-5-6",
   "crash5|26/06/18|0-3-26-44",
   "crash6|26/06/18|0-3-6-42",
   "crash7|26/06/18|0-3-15-38",
   "crash1|26/06/18|0-21-7-43",
   "crash2|27/06/18|0-11-54-15",
   "crash3|27/06/18|0-11-8-41",
   "crash4|28/06/18|0-8-22-29",
   "crash5|28/06/18|0-7-3-8",
   "crash6|28/06/18|0-3-0-0",
   "crash7|29/06/18|0-3-0-4",
   "crash1|29/06/18|0-7-36-47",
   "crash2|29/06/18|0-4-11-44",
   "crash3|29/06/18|0-3-18-25",
   "crash4|29/06/18|0-14-15-35",
   "crash5|30/06/18|0-3-7-53",
   "crash6|30/06/18|0-3-19-10",
   "crash7|30/06/18|0-6-41-0",
   "crash1|30/06/18|0-3-27-18",
   "crash2|01/07/18|0-7-47-26",
   "crash3|01/07/18|0-3-0-0",
   "crash4|01/07/18|0-3-0-1",
   "crash5|01/07/18|0-3-0-1",
   "crash6|01/07/18|0-3-0-5",
   "crash7|01/07/18|0-3-0-1",
   "crash1|02/07/18|0-6-8-58",
   "crash2|02/07/18|0-3-0-0",
   "crash3|02/07/18|0-3-0-0",
   "crash4|02/07/18|0-7-37-18",
   "crash5|02/07/18|0-3-0-1",
   "crash6|03/07/18|0-8-45-0",
   "crash7|03/07/18|0-3-5-40",
   "crash1|03/07/18|0-3-0-1",
   "crash2|03/07/18|0-5-41-27",
   "crash3|03/07/18|0-3-0-0",
   "crash4|03/07/18|0-5-23-1",
   "crash5|04/07/18|0-4-0-47",
   "crash6|04/07/18|0-3-0-4",
   "crash7|04/07/18|0-3-46-32",
   "crash1|04/07/18|0-5-2-55",
   "crash2|04/07/18|0-3-0-5",
   "crash3|05/07/18|0-8-28-51",
   "crash4|05/07/18|0-3-0-4",
   "crash5|05/07/18|0-3-53-39",
   "crash6|05/07/18|1-2-31-52",
   "crash7|06/07/18|0-3-0-3",
   "crash1|06/07/18|0-18-6-30",
   "crash2|07/07/18|0-3-0-3",
   "crash3|07/07/18|0-3-0-5",
   "crash4|07/07/18|0-11-12-0",
   "crash5|08/07/18|0-6-44-47",
   "crash6|08/07/18|0-3-0-0",
   "crash7|08/07/18|0-6-34-13",
   "crash1|09/07/18|0-4-1-52",
   "crash2|09/07/18|0-3-0-59",
   "crash3|09/07/18|0-3-59-1",
   "crash4|09/07/18|0-3-5-22",
   "crash5|09/07/18|0-3-44-9",
   "crash6|09/07/18|0-3-0-5",
   "crash7|09/07/18|0-3-47-33",
   "crash1|10/07/18|0-8-2-49",
   "crash2|10/07/18|0-5-9-10",
   "crash3|10/07/18|0-3-0-3",
   "crash4|10/07/18|0-3-0-4",
   "crash5|10/07/18|0-3-0-0",
   "crash6|10/07/18|0-3-0-5",
   "crash7|11/07/18|0-3-24-33",
   "crash1|11/07/18|0-3-0-2",
   "crash2|11/07/18|0-3-0-2",
   "crash3|11/07/18|0-3-0-4",
   "crash4|11/07/18|0-3-0-3",
   "crash5|11/07/18|0-3-0-0",
   "crash6|11/07/18|0-3-0-3",
   "crash7|11/07/18|0-3-0-2",
   "crash1|12/07/18|0-3-0-0",
   "crash2|12/07/18|0-3-0-1",
   "crash3|12/07/18|0-3-0-3",
   "crash4|12/07/18|0-3-35-51",
   "crash5|12/07/18|1-1-13-1",
   "crash6|13/07/18|0-23-59-27",
   "crash7|14/07/18|0-19-6-23",
   "crash1|15/07/18|2-9-13-48",
   "crash2|17/07/18|0-11-6-7",
   "crash3|18/07/18|0-20-13-57",
   "crash4|19/07/18|1-5-2-0",
   "crash5|20/07/18|0-10-3-4",
   "crash6|20/07/18|1-9-10-24",
   "crash7|22/07/18|0-3-0-1",
   "crash1|22/07/18|1-19-38-15",
   "crash2|24/07/18|0-6-41-29",
   "crash3|24/07/18|0-9-46-8",
   "crash4|24/07/18|2-1-56-45",
   "crash5|26/07/18|2-16-26-48",
   "crash6|29/07/18|0-17-59-45",
   "crash7|30/07/18|2-11-6-52",
   "crash1|01/08/18|1-17-34-40",
   "crash2|03/08/18|0-22-12-58",
   "crash3|04/08/18|2-23-31-16",
   "crash4|07/08/18|0-3-0-0",
   "crash5|07/08/18|0-3-0-0",
   "crash6|07/08/18|0-16-46-24",
   "crash7|08/08/18|0-3-0-1",
   "crash1|08/08/18|0-3-0-0",
   "crash2|08/08/18|0-3-0-5",
   "crash3|08/08/18|0-3-0-0",
   "crash4|08/08/18|0-3-0-3",
   "crash5|09/08/18|0-3-0-3",
   "crash6|09/08/18|0-3-0-1",
   "crash7|09/08/18|0-3-0-3",
   "crash1|09/08/18|0-3-0-1",
   "crash2|09/08/18|0-3-0-3",
   "crash3|09/08/18|0-3-0-5",
   "crash4|09/08/18|0-3-0-3",
   "crash5|09/08/18|0-3-0-3",
   "crash6|10/08/18|0-3-0-3",
   "crash7|10/08/18|0-3-0-5",
   "crash1|10/08/18|0-3-0-1",
   "crash2|10/08/18|0-3-0-1",
   "crash3|10/08/18|0-3-0-3",
   "crash4|10/08/18|1-5-23-2",
   "crash5|11/08/18|0-15-5-15",
   "crash6|12/08/18|0-6-14-12",
   "crash7|12/08/18|0-3-0-3",
   "crash1|12/08/18|0-15-32-7",
   "crash2|13/08/18|0-3-0-4",
   "crash3|13/08/18|0-4-25-32",
   "crash4|13/08/18|0-14-10-48",
   "crash5|14/08/18|0-3-49-12",
   "crash6|14/08/18|0-5-48-58",
   "crash7|14/08/18|0-3-0-48",
   "crash1|14/08/18|0-5-38-23",
   "crash2|15/08/18|0-3-2-15",
   "crash3|15/08/18|0-4-32-15",
   "crash4|15/08/18|1-0-32-37",
   "crash5|16/08/18|0-20-26-2",
   "crash6|17/08/18|1-13-36-18",
   "crash7|18/08/18|1-13-8-20",
   "crash1|20/08/18|1-8-50-55",
   "crash2|21/08/18|0-10-5-10",
   "crash3|22/08/18|0-4-50-38",
   "crash4|22/08/18|0-8-21-14",
   "crash5|22/08/18|0-7-46-51",
   "crash6|23/08/18|1-0-2-34",
   "crash7|24/08/18|0-14-42-25",
   "crash1|24/08/18|1-22-43-13",
   "crash2|26/08/18|0-6-2-10",
   "crash3|26/08/18|0-4-6-0",
   "crash4|27/08/18|0-3-7-5",
   "crash5|27/08/18|0-3-51-13",
   "crash6|27/08/18|0-4-10-0",
   "crash7|27/08/18|0-8-27-25",
   "crash1|27/08/18|0-13-49-6",
   "crash2|28/08/18|0-19-43-8",
   "crash3|29/08/18|0-3-0-3",
   "crash4|29/08/18|0-3-0-1",
   "crash5|29/08/18|0-3-3-42",
   "crash6|29/08/18|0-3-13-41",
   "crash7|29/08/18|0-6-43-14",
   "crash1|30/08/18|0-4-13-2",
   "crash2|30/08/18|0-5-41-34",
   "crash3|30/08/18|0-3-49-56",
   "crash4|30/08/18|1-3-34-38",
   "crash5|31/08/18|0-10-34-5",
   "crash6|01/09/18|0-7-9-23",
   "crash7|01/09/18|0-7-15-27",
   "crash1|01/09/18|0-11-14-44",
   "crash2|02/09/18|0-3-0-3",
   "crash3|02/09/18|0-3-0-0",
   "crash4|02/09/18|0-3-0-1",
   "crash5|02/09/18|0-3-0-4",
   "crash6|02/09/18|0-3-22-1",
   "crash7|03/09/18|0-3-3-1",
   "crash1|03/09/18|0-3-0-4",
   "crash2|03/09/18|0-3-4-18",
   "crash3|03/09/18|0-4-6-1",
   "crash4|03/09/18|0-4-24-38",
   "crash5|03/09/18|0-13-12-29",
   "crash6|04/09/18|0-4-34-40",
   "crash7|04/09/18|0-3-50-53",
   "crash1|04/09/18|0-5-28-48",
   "crash2|04/09/18|0-13-54-28",
   "crash3|05/09/18|0-21-24-8",
   "crash4|06/09/18|0-3-32-16",
   "crash5|06/09/18|0-4-56-51",
   "crash6|06/09/18|0-4-5-8",
   "crash7|06/09/18|0-3-0-1",
   "crash1|07/09/18|0-3-0-0",
   "crash2|07/09/18|0-3-0-4",
   "crash3|07/09/18|0-3-40-20",
   "crash4|07/09/18|0-6-3-48",
   "crash5|07/09/18|0-3-39-34",
   "crash6|07/09/18|0-13-57-28",
   "crash7|08/09/18|0-3-12-29",
   "crash1|08/09/18|0-7-27-35",
   "crash2|08/09/18|0-3-0-0",
   "crash3|08/09/18|0-17-3-54",
   "crash4|09/09/18|0-3-55-16",
   "crash5|09/09/18|0-12-17-3",
   "crash6|10/09/18|0-3-0-0",
   "crash7|10/09/18|0-5-49-37",
   "crash1|10/09/18|0-3-0-5",
   "crash2|10/09/18|0-12-34-0",
   "crash3|11/09/18|0-3-5-59",
   "crash4|11/09/18|0-16-39-30",
   "crash5|12/09/18|0-8-38-6",
   "crash6|12/09/18|0-3-0-5",
   "crash7|12/09/18|0-3-0-1",
   "crash1|12/09/18|0-3-0-2",
   "crash2|12/09/18|0-3-3-20",
   "crash3|13/09/18|0-3-7-35",
   "crash4|13/09/18|0-3-2-24",
   "crash5|13/09/18|0-3-1-32",
   "crash6|13/09/18|0-3-0-4",
   "crash7|13/09/18|0-3-0-5",
   "crash1|13/09/18|0-3-0-0",
   "crash2|13/09/18|0-3-0-2",
   "crash3|13/09/18|0-3-0-2",
   "crash4|14/09/18|0-3-0-4",
   "crash5|14/09/18|0-3-2-47",
   "crash6|14/09/18|0-3-1-32",
   "crash7|14/09/18|0-3-0-4",
   "crash1|14/09/18|0-3-0-1",
   "crash2|14/09/18|0-3-0-0",
   "crash3|14/09/18|0-3-0-5",
   "crash4|14/09/18|0-3-6-44",
   "crash5|15/09/18|0-3-0-4",
   "crash6|15/09/18|0-3-3-59",
   "crash7|15/09/18|0-3-0-0",
   "crash1|15/09/18|0-3-0-6",
   "crash2|15/09/18|0-3-0-3",
   "crash3|15/09/18|0-3-0-3",
   "crash4|15/09/18|0-3-0-5",
   "crash5|15/09/18|0-3-0-4",
   "crash6|16/09/18|0-3-0-3",
   "crash7|16/09/18|0-3-2-33",
   "crash1|16/09/18|0-3-0-0",
   "crash2|16/09/18|0-3-0-0",
   "crash3|16/09/18|0-3-0-4",
   "crash4|16/09/18|0-3-3-35",
   "crash5|16/09/18|0-3-0-5",
   "crash6|16/09/18|0-3-0-4",
   "crash7|17/09/18|0-3-0-3",
   "crash1|17/09/18|0-3-0-43",
   "crash2|17/09/18|0-3-0-25",
   "crash3|17/09/18|0-3-0-5",
   "crash4|17/09/18|0-3-39-38",
   "crash5|17/09/18|0-3-1-31",
   "crash6|17/09/18|0-3-0-3",
   "crash7|17/09/18|0-3-0-27",
   "crash1|18/09/18|0-3-0-3",
   "crash2|18/09/18|0-3-0-1",
   "crash3|18/09/18|0-3-0-13",
   "crash4|18/09/18|0-3-0-3",
   "crash5|18/09/18|0-3-0-2",
   "crash6|18/09/18|0-3-0-0",
   "crash7|18/09/18|0-3-0-1",
   "crash1|18/09/18|0-3-0-1",
   "crash2|19/09/18|0-3-0-12",
   "crash3|19/09/18|0-3-2-50",
   "crash4|19/09/18|0-3-0-0",
   "crash5|19/09/18|0-3-1-45",
   "crash6|19/09/18|0-3-0-2",
   "crash7|19/09/18|0-3-0-3",
   "crash1|19/09/18|0-3-2-1",
   "crash2|19/09/18|0-3-2-15",
   "crash3|20/09/18|0-3-0-0",
   "crash4|20/09/18|0-3-3-6",
   "crash5|20/09/18|0-3-2-44",
   "crash6|20/09/18|0-3-0-0",
   "crash7|20/09/18|0-3-1-15",
   "crash1|20/09/18|0-3-1-50",
   "crash2|20/09/18|0-3-0-0",
   "crash3|20/09/18|0-3-0-3",
   "crash4|21/09/18|0-3-3-1",
   "crash5|21/09/18|0-3-1-23",
   "crash6|21/09/18|0-3-2-43",
   "crash7|21/09/18|0-3-0-5",
   "crash1|21/09/18|0-3-3-3",
   "crash2|21/09/18|0-3-0-4",
   "crash3|21/09/18|0-3-0-5",
   "crash4|21/09/18|0-3-0-0",
   "crash5|22/09/18|0-3-2-19",
   "crash6|22/09/18|0-3-0-29",
   "crash7|22/09/18|0-3-0-59",
   "crash1|22/09/18|0-3-2-10",
   "crash2|22/09/18|0-3-6-44",
   "crash3|22/09/18|0-3-0-3",
   "crash4|22/09/18|0-3-1-49",
   "crash5|23/09/18|0-3-0-51",
   "crash6|23/09/18|0-3-0-1",
   "crash7|23/09/18|0-3-0-1",
   "crash1|23/09/18|0-3-0-2",
   "crash2|23/09/18|0-3-0-4",
   "crash3|23/09/18|0-3-0-1",
   "crash4|23/09/18|0-3-0-2",
   "crash5|23/09/18|0-3-0-0",
   "crash6|24/09/18|0-3-0-1",
   "crash7|24/09/18|0-3-0-5",
   "crash1|24/09/18|0-3-1-23",
   "crash2|24/09/18|0-3-1-29",
   "crash3|24/09/18|0-3-0-0",
   "crash4|24/09/18|0-3-0-1",
   "crash5|24/09/18|0-3-0-1",
   "crash6|24/09/18|0-18-14-0",
   "crash7|25/09/18|1-18-25-28",
   "crash1|27/09/18|0-8-3-53",
   "crash2|27/09/18|0-16-45-41",
   "crash3|28/09/18|0-8-4-42",
   "crash4|28/09/18|0-6-24-16",
   "crash5|29/09/18|1-16-50-9",
   "crash6|30/09/18|1-1-57-20",
   "crash7|01/10/18|0-15-11-9",
   "crash1|02/10/18|0-9-43-44",
   "crash2|02/10/18|0-15-27-45",
   "crash3|03/10/18|0-4-35-5",
   "crash4|03/10/18|0-4-41-8",
   "crash5|03/10/18|0-10-8-2",
   "crash6|04/10/18|0-3-6-58",
   "crash7|04/10/18|1-6-38-4",
   "crash1|05/10/18|0-4-55-30",
   "crash2|05/10/18|1-21-33-20",
   "crash3|07/10/18|0-12-24-16",
   "crash4|08/10/18|0-3-0-5",
   "crash5|08/10/18|0-3-14-24",
   "crash6|08/10/18|0-8-30-2",
   "crash7|08/10/18|0-11-28-59",
   "crash1|09/10/18|0-8-1-39",
   "crash2|09/10/18|0-3-1-44",
   "crash3|09/10/18|0-8-10-23",
   "crash4|10/10/18|1-8-35-31",
   "crash5|11/10/18|0-6-43-49",
   "crash6|11/10/18|0-6-20-49",
   "crash7|12/10/18|0-8-55-45",
   "crash1|12/10/18|0-3-22-14",
   "crash2|12/10/18|0-3-13-53",
   "crash3|12/10/18|0-3-33-7",
   "crash4|12/10/18|0-7-30-10",
   "crash5|13/10/18|0-10-32-25",
   "crash6|13/10/18|0-7-4-12",
   "crash7|13/10/18|0-12-2-36",
   "crash1|14/10/18|0-5-33-38",
   "crash2|14/10/18|0-5-52-14",
   "crash3|14/10/18|0-10-59-10",
   "crash4|15/10/18|0-4-16-44",
   "crash5|15/10/18|0-6-50-20",
   "crash6|15/10/18|0-3-7-0",
   "crash7|16/10/18|0-14-11-27",
   "crash1|16/10/18|0-8-9-55",
   "crash2|16/10/18|0-12-50-44",
   "crash3|17/10/18|0-3-11-30",
   "crash4|17/10/18|0-7-37-20",
   "crash5|17/10/18|0-9-36-3",
   "crash6|18/10/18|1-2-12-26",
   "crash7|19/10/18|0-20-34-35",
   "crash1|20/10/18|0-4-28-43",
   "crash2|20/10/18|1-22-5-4",
   "crash3|22/10/18|0-5-13-31",
   "crash4|22/10/18|1-3-42-12",
   "crash5|23/10/18|0-3-9-14",
   "crash6|23/10/18|0-10-26-51",
   "crash7|24/10/18|0-7-51-38",
   "crash1|24/10/18|0-6-3-14",
   "crash2|24/10/18|0-4-49-59",
   "crash3|25/10/18|0-11-11-40",
   "crash4|25/10/18|0-23-10-2",
   "crash5|26/10/18|0-4-57-24",
   "crash6|26/10/18|1-19-57-44",
   "crash7|28/10/18|0-7-29-1",
   "crash1|28/10/18|0-18-34-20",
   "crash2|29/10/18|2-18-27-8",
   "crash3|01/11/18|0-7-0-41",
   "crash4|01/11/18|1-4-32-0",
   "crash5|02/11/18|1-16-17-30",
   "crash6|04/11/18|0-19-52-31",
   "crash7|05/11/18|0-3-14-49",
   "crash1|05/11/18|0-9-41-36",
   "crash2|05/11/18|0-13-18-3",
   "crash3|06/11/18|0-15-28-55",
   "crash4|07/11/18|0-16-40-46",
   "crash5|07/11/18|1-12-1-10",
   "crash6|09/11/18|0-3-0-3",
   "crash7|09/11/18|1-18-47-20",
   "crash1|11/11/18|0-12-14-57",
   "crash2|11/11/18|0-16-26-13",
   "crash3|12/11/18|0-7-24-12",
   "crash4|12/11/18|0-8-31-34",
   "crash5|13/11/18|0-9-48-39",
   "crash6|13/11/18|0-3-20-58",
   "crash7|13/11/18|0-3-26-27",
   "crash1|13/11/18|0-3-0-3",
   "crash2|13/11/18|0-3-24-19",
   "crash3|14/11/18|0-6-59-0",
   "crash4|14/11/18|0-3-0-2",
   "crash5|14/11/18|0-19-20-31",
   "crash6|15/11/18|0-3-55-54",
   "crash7|15/11/18|0-3-0-5",
   "crash1|15/11/18|0-3-0-4",
   "crash2|15/11/18|0-16-40-55",
   "crash3|16/11/18|0-3-39-41",
   "crash4|16/11/18|0-10-21-45",
   "crash5|16/11/18|1-9-12-18",
   "crash6|18/11/18|0-6-40-31"
]